1,10.106246018,0.054029478,11.978114647,0.052729526
2,32.536719793,0.268197493,33.553511729,0.267945978
3,16.427107165,0.024232268,16.874927292,0.031087604
4,5.304333266,0.012147172,5.597797934,0.016054746
5,7.989945173,0.663494445,7.726593934,0.673839723
6,35.667709309,0.354278779,34.648513766,0.356214874
7,24.986453612,0.111993892,23.768062404,0.121147152
8,13.379195533,0.883381678,11.841901599,0.755088723
